…
    # Scan yaml of all posts (run at root of blogdown project)
    blogdown:::scan_yaml(blogdown_content_path) %>%
      # Pull out the tags
      map("tags") %>%
      # Drop results without any tags
      discard(is.null) %>%
      # Turn into a nice tibble (can stop here if you want tags + files)
      map_df(~ tibble::data_frame(tag = .), .id = "file") %>%
      # Summarize (group and count)
      group_by(tag) %>%
      count(sort = TRUE) %>%
      # Starts with uppercase?
      mutate(starts_upper = substr(tag, 1, 1) %in% LETTERS)

    ## # A tibble: 50 x 3
    ## # Groups:   tag [50]
    ##    tag               n starts_upper
    ##    <chr>         <int> <lgl>
    ##  1 R                19 TRUE
    ##  2 Data Analysis     6 TRUE
    ##  3 Markdown          6 TRUE
    ##  4 Research          6 TRUE
    ##  5 Visualization     6 TRUE
    ##  6 R Package         5 TRUE
    ##  7 Scripts           5 TRUE
    ##  8 pandoc            4 FALSE
    ##  9 ggplot2           3 FALSE
    ## 10 INFORMS           3 TRUE
    ## # ... with 40 more rows
…
