Garrick Aden-Buie - A Printable Custom Weekly Planner with ggplot2
…
dates <-
  tibble(
    day       = seq_days,
    wday_name = wday(day, label = TRUE, abbr = TRUE),
    weekend   = wday(day) > 5,
    isoweek   = isoweek(day),
    month     = month(day, label = TRUE, abbr = FALSE),
    isoyear   = isoyear(day),
    week_year = fct_rev(sprintf("%s - %s", isoyear, isoweek))
  )

dates

# A tibble: 54 × 7
   day        wday_name weekend isoweek month isoyear week_year
   <date>     <ord>     <lgl>     <dbl> <ord>   <dbl> <fct>    
 1 2019-06-24 Mon       FALSE        26 June     2019 2019 - 26
 2 2019-06-25 Tue       FALSE        26 June     2019 2019 - 26
 3 2019-06-26 Wed       FALSE        26 June     2019 2019 - 26
 4 2019-06-27 Thu       FALSE        26 June     2019 2019 - 26
 5 2019-06-28 Fri       FALSE        26 June     2019 2019 - 26
 6 2019-06-29 Sat       TRUE         26 June     2019 2019 - 26
 7 2019-06-30 Sun       TRUE         26 June     2019 2019 - 26
 8 2019-07-01 Mon       FALSE        27 July     2019 2019 - 27
 9 2019-07-02 Tue       FALSE        27 July     2019 2019 - 27
10 2019-07-03 Wed       FALSE        27 July     2019 2019 - 27
# … with 44 more rows
…
