Read and Visualize your Twitter Archive – Garrick Aden-Buie
…
The result… a nice tidy table of tweets!

tidy_tweets

#> # A tibble: 6,223 × 17
#>    created_at          favori…¹ retwe…² full_…³ id    lang  source user_…⁴ hasht…⁵ retweet reply type   hour day   month
#>    <dttm>                 <int>   <int> <chr>   <chr> <chr> <chr>  <chr>   <chr>   <lgl>   <lgl> <chr> <int> <ord> <ord>
#>  1 2022-11-05 10:02:17        0       0 "RT @g… 1588… en    "<a h… "georg… ""      TRUE    FALSE retw…    10 Sat   Nove…
#>  2 2022-11-04 19:42:01        4       0 "@JonT… 1588… en    "<a h… "JonTh… ""      FALSE   TRUE  reply    19 Fri   Nove…
#>  3 2022-11-04 15:21:23        1       0 "@tjma… 1588… en    "<a h… "tjmah… ""      FALSE   TRUE  reply    15 Fri   Nove…
#>  4 2022-11-03 12:39:09        1       0 "@trav… 1588… en    "<a h… "trave… ""      FALSE   TRUE  reply    12 Thu   Nove…
#>  5 2022-11-03 06:45:53        5       0 "@mcca… 1588… en    "<a h… "mccar… ""      FALSE   TRUE  reply     6 Thu   Nove…
#>  6 2022-11-03 06:36:56        2       0 "@trav… 1588… en    "<a h… "trave… ""      FALSE   TRUE  reply     6 Thu   Nove…
#>  7 2022-11-02 12:26:46        0       0 "RT @p… 1587… en    "<a h… "posit… ""      TRUE    FALSE retw…    12 Wed   Nove…
#>  8 2022-11-02 12:20:50        4       0 "And I… 1587… en    "<a h… ""      ""      FALSE   FALSE tweet    12 Wed   Nove…
#>  9 2022-10-31 11:47:57        0       0 "RT @D… 1587… en    "<a h… "Dante… ""      TRUE    FALSE retw…    11 Mon   Octo…
#> 10 2022-10-30 19:32:22        8       0 "At fi… 1586… en    "<a h… "pomol… ""      FALSE   FALSE tweet    19 Sun   Octo…
#> # … with 6,213 more rows, 2 more variables: day_of_month <int>, year <dbl>, and abbreviated variable names
#> #   ¹​favorite_count, ²​retweet_count, ³​full_text, ⁴​user_mentions, ⁵​hashtags
…
My likes

One huge reason to go through the trouble of requesting and downloading your Twitter archive is to collect a copy of your liked tweets. (Sadly, your bookmarks are not a part of the archive.)

likes <-
  read_twitter_data(manifest, "like") |>
  simplify_twitter_data()

likes |>
  arrange(as.numeric(tweetId))

#> # A tibble: 11,773 × 3
#>    tweetId            fullText                                                                                   expan…¹
#>    <chr>              <chr>                                                                                      <chr>  
#>  1 42240201359233024  We just went live with RStudio, a new IDE for R. Try it out and let us know what you thin… https:…
#>  2 169437879704092672 RT @DKThomp: Adulthood, Delayed: What the Recession Has Done to Millennials http://t.co/U… https:…
#>  3 338425212762738690 Joy! First sighting of NYC's CitiBikes in place! http://t.co/o6VPop4kWZ                    https:…
#>  4 343026917659791360 What a shitty day to announce my new data analytics project, Prism.                        https:…
#>  5 343037575889580033 Very cool: DoS using agent-based modeling to understand conflict dynamics in Niger Delta … https:…
#>  6 347931309496213504 BACK TO BACK CHAMPS!!! Going crazy all by myself in my little hotel room in Prague. Effin… https:…
#>  7 383071681079549953 The real reason lowering health care costs is hard: Every patient is unique http://t.co/j… https:…
#>  8 386857068423938048 Good work on study on admits/length of stay/ 'crowdedness' of ICU &amp; impacts on morbid… https:…
#>  9 386862608231325696 I'm giving my presentation on scheduling medical residents at #informs2013 in the Doing G… https:…
#> 10 386935928042029056 Gustavo just presented a semicont opt that can B perfectly applied in my supply chain pro… https:…
#> # … with 11,763 more rows, and abbreviated variable name ¹​expandedUrl

While the likes archive includes the full text of each tweet, we can use the lookup_tweets() function from the rtweet package to download complete information about each tweet.

likes_full <-
  rtweet::lookup_tweets(likes$tweetId) |>
  write_rds("data/likes.rds")

Getting all 11,773 tweets takes a few minutes, so I highly recommend saving the data to disk as soon as you’ve collected it.

likes_full <- read_rds("data/likes.rds")
likes_full

#> # A tibble: 11,385 × 43
#>    created_at               id id_str       full_…¹ trunc…² displ…³ entities     source in_rep…⁴ in_re…⁵ in_re…⁶ in_re…⁷
#>    <dttm>                <dbl> <chr>        <chr>   <lgl>     <dbl> <list>       <chr>     <dbl> <chr>     <dbl> <chr>  
#>  1 2022-11-04 20:35:35 1.59e18 15886914597… "Read … FALSE       278 <named list> "<a h… NA       NA      NA      NA     
#>  2 2022-11-05 10:33:18 1.59e18 15889022786… "heari… FALSE       190 <named list> "<a h… NA       NA      NA      NA     
#>  3 2022-11-05 01:35:38 1.59e18 15887669703… "Defen… FALSE       236 <named list> "<a h… NA       NA      NA      NA     
#>  4 2022-11-04 14:23:18 1.59e18 15885977742… "Pleas… FALSE        60 <named list> "<a h… NA       NA      NA      NA     
#>  5 2022-11-04 11:35:40 1.59e18 15885555857… "Despe… FALSE       114 <named list> "<a h… NA       NA      NA      NA     
#>  6 2022-11-04 16:16:08 1.59e18 15886261683… "Here'… FALSE       269 <named list> "<a h… NA       NA      NA      NA     
#>  7 2022-11-04 11:46:29 1.59e18 15885583081… "@tjma… FALSE        39 <named list> "<a h…  1.59e18 158855…  1.29e9 128991…
#>  8 2022-11-03 10:22:11 1.59e18 15881747079… "https… FALSE         0 <named list> "<a h… NA       NA      NA      NA     
#>  9 2022-11-04 09:48:27 1.59e18 15885286045… "One o… FALSE       188 <named list> "<a h… NA       NA      NA      NA     
#> 10 2022-11-04 13:54:39 1.59e18 15885905619… "We’ve… FALSE       141 <named list> "<a h… NA       NA      NA      NA     
#> # … with 11,375 more rows, 31 more variables: in_reply_to_screen_name <chr>, geo <list>, coordinates <list>,
#> #   place <list>, contributors <lgl>, is_quote_status <lgl>, retweet_count <int>, favorite_count <int>,
#> #   favorited <lgl>, retweeted <lgl>, lang <chr>, possibly_sensitive <lgl>, quoted_status_id <dbl>,
#> #   quoted_status_id_str <chr>, quoted_status_permalink <list>, quoted_status <list>, text <chr>, favorited_by <lgl>,
#> #   scopes <list>, display_text_width <lgl>, retweeted_status <lgl>, quote_count <lgl>, timestamp_ms <lgl>,
#> #   reply_count <lgl>, filter_level <lgl>, metadata <lgl>, query <lgl>, withheld_scope <lgl>, withheld_copyright <lgl>,
#> #   withheld_in_countries <lgl>, possibly_sensitive_appealable <lgl>, and abbreviated variable names ¹​full_text, …
…
Once you have the impressions and engagements tables, you can combine them together with purrr::list_rbind.

ads <-
  list(
    impression = ad_impressions,
    engagement = ad_engagements
  ) |>
  list_rbind(names_to = "type")

ads

#> # A tibble: 8,599 × 16
#>    type       osType devic…¹ devic…² displ…³ tweetId tweet…⁴ urls   media…⁵ adver…⁶ scree…⁷ matche…⁸ impressionTime     
#>    <chr>      <chr>  <chr>   <chr>   <chr>   <chr>   <chr>   <list> <list>  <chr>   <chr>   <list>   <dttm>             
#>  1 impression Ios    2eVW2/… iPhone… Timeli… 154910… "When … <NULL> <NULL>  Chevro… @chevr… <tibble> 2022-08-08 14:03:09
#>  2 impression Ios    2eVW2/… iPhone… Timeli… 155557… "Tune … <chr>  <NULL>  Walmart @Walma… <tibble> 2022-08-08 14:08:07
#>  3 impression Ios    2eVW2/… iPhone… Timeli… 155465… "Meet … <NULL> <NULL>  Anker   @Anker… <tibble> 2022-08-08 14:04:17
#>  4 impression Ios    2eVW2/… iPhone… Timeli… 155598… "This … <NULL> <chr>   KESIMP… @KESIM… <tibble> 2022-08-08 10:54:28
#>  5 impression Ios    2eVW2/… iPhone… TweetC… 155507… "🎁🎁G… <NULL> <NULL>  Webull  @Webul… <tibble> 2022-08-08 10:57:56
#>  6 impression Ios    2eVW2/… iPhone… Timeli… 151472… "#1 is… <NULL> <NULL>  Financ… @finan… <tibble> 2022-08-08 10:56:19
#>  7 impression Ios    2eVW2/… iPhone… TweetC… 155507… "🎁🎁G… <NULL> <NULL>  Webull  @Webul… <tibble> 2022-08-08 10:56:57
#>  8 impression Ios    2eVW2/… iPhone… Timeli… 155481… "Mick.… <NULL> <NULL>  EPIX i… @EPIXHD <tibble> 2022-08-08 03:33:23
#>  9 impression Ios    2eVW2/… iPhone… Timeli… 155407… "Watch… <NULL> <NULL>  Paper … @HowLi… <tibble> 2022-08-08 03:34:51
#> 10 impression Ios    2eVW2/… iPhone… Timeli… 155512… "Wreck… <NULL> <NULL>  Mill G… @Mill_… <tibble> 2022-08-08 03:25:08
#> # … with 8,589 more rows, 3 more variables: publisherInfo <list>, promotedTrendInfo <list>,
#> #   engagementAttributes <list>, and abbreviated variable names ¹​deviceId, ²​deviceType, ³​displayLocation, ⁴​tweetText,
#> #   ⁵​mediaUrls, ⁶​advertiserName, ⁷​screenName, ⁸​matchedTargetingCriteria
…
