Garrick Aden-Buie - Saving Daylight Time?
…
As cool as it is to so easily get to the point of having this data in hand, we need to do a little bit of tidying up to get it ready for ggplot2. In particular, we need to consolidate all of the timestamps into one column that we can index by date and event (such as dawn, nautical dawn, etc.). I used pivot_longer() to move the column labels for dawn through sunset into an event column with the corresponding values from each row in an adjacent time column.

library(tidyverse)

tidy_sun_times <-
  sun_times %>%
  select(-lat, -lon) %>%
  pivot_longer(-date, names_to = "event", values_to = "time") %>%
  mutate(
    tz = strftime(time, "%Z"),
    time = hms::as_hms(time)
  )

tidy_sun_times
## # A tibble: 2,196 × 4
##    date       event        time     tz   
##    <date>     <chr>        <time>   <chr>
##  1 2022-01-01 dawn         07:18:23 EST  
##  2 2022-01-01 nauticalDawn 06:47:27 EST  
##  3 2022-01-01 dusk         18:12:28 EST  
##  4 2022-01-01 nauticalDusk 18:43:24 EST  
##  5 2022-01-01 sunrise      07:45:47 EST  
##  6 2022-01-01 sunset       17:45:04 EST  
##  7 2022-01-02 dawn         07:18:35 EST  
##  8 2022-01-02 nauticalDawn 06:47:41 EST  
##  9 2022-01-02 dusk         18:13:11 EST  
## 10 2022-01-02 nauticalDusk 18:44:05 EST  
## # … with 2,186 more rows
…
tidier_sun_times
## # A tibble: 1,098 × 7
##    date       tz    pair         event_starts starts   event_ends   ends    
##    <date>     <chr> <fct>        <chr>        <time>   <chr>        <time>  
##  1 2022-01-01 EST   dawn         dawn         07:18:23 dusk         18:12:28
##  2 2022-01-01 EST   nauticalDawn nauticalDawn 06:47:27 nauticalDusk 18:43:24
##  3 2022-01-01 EST   sunrise      sunrise      07:45:47 sunset       17:45:04
##  4 2022-01-02 EST   dawn         dawn         07:18:35 dusk         18:13:11
##  5 2022-01-02 EST   nauticalDawn nauticalDawn 06:47:41 nauticalDusk 18:44:05
##  6 2022-01-02 EST   sunrise      sunrise      07:45:57 sunset       17:45:48
##  7 2022-01-03 EST   dawn         dawn         07:18:45 dusk         18:13:54
##  8 2022-01-03 EST   nauticalDawn nauticalDawn 06:47:53 nauticalDusk 18:44:47
##  9 2022-01-03 EST   sunrise      sunrise      07:46:06 sunset       17:46:33
## 10 2022-01-04 EST   dawn         dawn         07:18:54 dusk         18:14:39
## # … with 1,088 more rows
…
