Remembering what I did this week with LLMs – Garrick Aden-Buie
…
work_data

# A tibble: 83 × 8
   repository              title created_at url   state is_issue body  closed_at
   <chr>                   <chr> <chr>      <chr> <chr> <lgl>    <chr> <chr>    
 1 r-lib/systemfonts       Repo… 2025-01-2… http… open  TRUE     "A s… <NA>     
 2 rstudio/shiny           fix(… 2025-01-2… http… open  FALSE    "Thi… <NA>     
 3 rstudio/chromote        v0.4… 2025-01-2… http… open  FALSE    "For… <NA>     
 4 rstudio/chromote        Rele… 2025-01-2… http… open  TRUE     "Pre… <NA>     
 5 quarto-ext/bluesky-com… refa… 2025-01-2… http… open  FALSE    "Fix… <NA>     
 6 quarto-ext/bluesky-com… Add … 2025-01-2… http… open  TRUE     "The… <NA>     
 7 rstudio/bslib           Bran… 2025-01-2… http… clos… FALSE    "Fix… 2025-01-…
 8 rstudio/bslib           chor… 2025-01-2… http… clos… FALSE    "Mov… 2025-01-…
 9 rstudio/bslib           Bran… 2025-01-2… http… clos… TRUE     "The… 2025-01-…
10 quarto-dev/quarto-cli   All … 2025-01-2… http… open  TRUE     "###… <NA>     
# ℹ 73 more rows
…
work_data <-
  work_data |>
  mutate(
    personal = grepl("(^gadenbuie)|bluesky-comments", repository),
    action_at = coalesce(closed_at, created_at),
    action = recode(state, open = "opened"),
    action = paste(action, if_else(is_issue, "an issue", "a PR")),
  ) |>
  arrange(personal, repository, is_issue, action_at)

# Preview the work data
work_data |>
  select(repository, action, action_at, title)

# A tibble: 83 × 4
   repository                  action          action_at            title       
   <chr>                       <chr>           <chr>                <chr>       
 1 posit-dev/air               opened an issue 2025-01-17T19:11:42Z Try to brea…
 2 posit-dev/air               opened an issue 2025-01-17T20:11:24Z Empty or sh…
 3 posit-dev/air               closed an issue 2025-01-21T19:56:11Z Selectively…
 4 posit-dev/air               closed an issue 2025-01-21T19:56:11Z Selectively…
 5 posit-dev/brand-yml         closed a PR     2025-01-21T17:32:35Z docs: Add g…
 6 posit-dev/brand-yml         closed a PR     2025-01-21T17:32:35Z docs: Add g…
 7 posit-dev/brand-yml         closed a PR     2025-01-21T19:58:30Z docs: Use G…
 8 posit-dev/brand-yml         closed a PR     2025-01-21T19:58:30Z docs: Use G…
 9 posit-dev/py-shiny          opened an issue 2025-01-21T16:25:43Z `render.Dat…
10 posit-dev/py-shiny-validate closed a PR     2025-01-22T17:28:32Z fix: Disabl…
# ℹ 73 more rows
…
