…
Finally, I still need to do a little bit of processing to get these tweets to fit into the previous plot.

djt_workday <- 
  djt_joined_all %>%
  filter_workday(
    start_var = created_at, end_var = created_at
  ) %>% 
  filter(date >= "2018-11-07", date <= "2019-02-02") %>% 
  select(-text)

At this point, there are a few versions of the tweets data set that I can use in different places.
The djt_simple is a basic, bare-bones tibble of tweets.

## # A tibble: 758 x 4
##    created_at          time_inc            text                 status_id  
##    <dttm>              <dttm>              <chr>                <chr>      
##  1 2018-11-07 01:27:01 2018-11-07 01:25:00 “There’s only been … 1060056007…
##  2 2018-11-07 01:37:48 2018-11-07 01:35:00 ....unbelievably lu… 1060058718…
##  3 2018-11-07 01:49:40 2018-11-07 01:45:00 .@DavidAsmanfox  “H… 1060061704…
##  4 2018-11-07 06:21:51 2018-11-07 06:20:00 Received so many Co… 1060130202…
##  5 2018-11-07 06:55:35 2018-11-07 06:55:00 Ron DeSantis showed… 1060138691…
##  6 2018-11-07 07:07:51 2018-11-07 07:05:00 Those that worked w… 1060141780…
##  7 2018-11-07 07:36:28 2018-11-07 07:35:00 I will be doing a n… 1060148982…
##  8 2018-11-07 07:52:39 2018-11-07 07:50:00 To any of the pundi… 1060153052…
##  9 2018-11-07 08:04:02 2018-11-07 08:00:00 If the Democrats th… 1060155917…
## 10 2018-11-07 08:31:24 2018-11-07 08:30:00 In all fairness, Na… 1060162807…
## # … with 748 more rows

The djt_joined_all variable holds the complete set of all tweets joined with the full schedule, meaning that there will be missing values where no tweets occurred in a 5 minute window or where the schedule data doesn’t cover a tweet.

## # A tibble: 1,182 x 9
##    time_inc            top_category text  event_id created_at         
##    <dttm>              <fct>        <chr>    <int> <dttm>             
##  1 2018-10-18 17:20:00 <NA>         Look…       NA 2018-10-18 17:22:53
##  2 2018-10-25 14:40:00 <NA>         Spok…       NA 2018-10-25 14:42:05
##  3 2018-11-05 16:25:00 <NA>         Than…       NA 2018-11-05 16:26:24
##  4 2018-12-20 14:15:00 Executive T… Cong…      323 2018-12-20 14:16:07
##  5 2018-12-21 07:20:00 <NA>         The …       NA 2018-12-21 07:24:18
##  6 2018-12-24 09:30:00 Unknown      Virt…      336 2018-12-24 09:31:50
##  7 2019-01-10 21:40:00 <NA>         We l…       NA 2019-01-10 21:42:46
##  8 2019-01-18 21:10:00 <NA>         http…       NA 2019-01-18 21:14:44
##  9 2019-01-24 08:20:00 Executive T… The …      500 2019-01-24 08:21:59
## 10 2019-01-31 23:25:00 <NA>         This…       NA 2019-01-31 23:26:43
## # … with 1,172 more rows, and 4 more variables: listed_title <chr>,
## #   hour <dbl>, date <dttm>, label <S3: glue>

And djt_workday contains the tweets within the period covered by the Axios schedules and during workday hours.

## # A tibble: 418 x 9
##    time_inc            top_category label event_id created_at         
##    <dttm>              <fct>        <S3:>    <int> <dttm>             
##  1 2018-11-07 08:00:00 Executive T… "If …        1 2018-11-07 08:04:02
##  2 2018-11-07 08:30:00 Executive T… "In …        1 2018-11-07 08:31:24
##  3 2018-11-07 10:35:00 Executive T… "Acc…        1 2018-11-07 10:39:11
##  4 2018-11-07 14:40:00 Executive T… "We …        5 2018-11-07 14:44:11
##  5 2018-11-07 14:40:00 Executive T… "...…        5 2018-11-07 14:44:12
##  6 2018-11-09 09:50:00 Travel       "“Pr…       22 2018-11-09 09:54:15
##  7 2018-11-09 10:55:00 Travel       ".@B…       22 2018-11-09 10:55:25
##  8 2018-11-09 10:55:00 Travel       "You…       22 2018-11-09 10:58:56
##  9 2018-11-09 11:50:00 Travel       "As …       22 2018-11-09 11:52:19
## 10 2018-11-09 12:10:00 Travel       "Jef…       22 2018-11-09 12:10:02
## # … with 408 more rows, and 4 more variables: listed_title <chr>,
## #   hour <dbl>, date <dttm>, weekend <chr>
…
exec_time_total %>% 
  arrange(date, desc(pct))

## # A tibble: 378 x 3
##    date                top_category      pct
##    <dttm>              <fct>           <dbl>
##  1 2018-11-07 00:00:00 Executive Time 0.833 
##  2 2018-11-07 00:00:00 Lunch          0.111 
##  3 2018-11-07 00:00:00 Meeting        0.0556
##  4 2018-11-07 00:00:00 Event          0     
##  5 2018-11-07 00:00:00 Unknown        0     
##  6 2018-11-07 00:00:00 Travel         0     
##  7 2018-11-08 00:00:00 Executive Time 0.5   
##  8 2018-11-08 00:00:00 Meeting        0.222 
##  9 2018-11-08 00:00:00 Lunch          0.111 
## 10 2018-11-08 00:00:00 Unknown        0.0833
## # … with 368 more rows
…
To this end, I ran Trump’s tweet text through the NRC sentiment dictionary using get_nrc_sentiment() from the syuzhet package.
This function returns an integer score from 0 to 10 for a range of positive and negative emotions.

R code…

djt_sentiment <- 
  djt_joined %>% 
  select(top_category, text) %>% 
  mutate(sentiment = map(text, syuzhet::get_nrc_sentiment)) %>% 
  unnest() %>% 
  gather(emotion, value, -top_category, -text)

djt_sentiment

## # A tibble: 2,950 x 4
##    top_category   text                                        emotion value
##    <fct>          <chr>                                       <chr>   <dbl>
##  1 Executive Time If the Democrats think they are going to w… anger       1
##  2 Executive Time In all fairness, Nancy Pelosi deserves to … anger       0
##  3 Executive Time According to NBC News, Voters Nationwide D… anger       4
##  4 Executive Time We are pleased to announce that Matthew G.… anger       1
##  5 Executive Time ....We thank Attorney General Jeff Session… anger       1
##  6 Travel         “Presidential Proclamation Addressing Mass… anger       0
##  7 Travel         .@BrianKempGA ran a great race in Georgia … anger       0
##  8 Travel         You mean they are just now finding votes i… anger       2
##  9 Travel         As soon as Democrats sent their best Elect… anger       2
## 10 Travel         Jeff Flake(y) doesn’t want to protect the … anger       2
## # … with 2,940 more rows

djt_sentiment_mean <- 
  djt_sentiment %>% 
  group_by(top_category, emotion) %>% 
  summarize(value = mean(value)) %>% 
  mutate(emotion = fct_reorder(emotion, value)) %>% 
  filter(top_category != "Unknown")

djt_sentiment_mean

## # A tibble: 50 x 3
## # Groups:   top_category [5]
##    top_category   emotion      value
##    <fct>          <fct>        <dbl>
##  1 Executive Time anger        0.864
##  2 Executive Time anticipation 0.870
##  3 Executive Time disgust      0.525
##  4 Executive Time fear         0.772
##  5 Executive Time joy          0.654
##  6 Executive Time negative     1.36 
##  7 Executive Time positive     2.01 
##  8 Executive Time sadness      0.562
##  9 Executive Time surprise     0.537
## 10 Executive Time trust        1.52 
## # … with 40 more rows
…
