Garrick Aden-Buie - President’s Day (As In: What Does President Trump Do With His Day?)
…
Finally, I still need to do a little bit of processing to get these tweets to fit into the previous plot.

djt_workday <-
  djt_joined_all %>%
  filter_workday(
    start_var = created_at, end_var = created_at
  ) %>%
  filter(date >= "2018-11-07", date <= "2019-02-02") %>%
  select(-text)

At this point, there are a few versions of the tweets data set that I can use in different places. The djt_simple is a basic, bare-bones tibble of tweets.

# A tibble: 758 × 4
   created_at          time_inc            text                          statu…¹
   <dttm>              <dttm>              <chr>                         <chr>  
 1 2018-11-07 01:27:01 2018-11-07 01:25:00 “There’s only been 5 times i… 106005…
 2 2018-11-07 01:37:48 2018-11-07 01:35:00 ....unbelievably lucky to ha… 106005…
 3 2018-11-07 01:49:40 2018-11-07 01:45:00 .@DavidAsmanfox  “How do the… 106006…
 4 2018-11-07 06:21:51 2018-11-07 06:20:00 Received so many Congratulat… 106013…
 5 2018-11-07 06:55:35 2018-11-07 06:55:00 Ron DeSantis showed great co… 106013…
 6 2018-11-07 07:07:51 2018-11-07 07:05:00 Those that worked with me in… 106014…
 7 2018-11-07 07:36:28 2018-11-07 07:35:00 I will be doing a news confe… 106014…
 8 2018-11-07 07:52:39 2018-11-07 07:50:00 To any of the pundits or tal… 106015…
 9 2018-11-07 08:04:02 2018-11-07 08:00:00 If the Democrats think they … 106015…
10 2018-11-07 08:31:24 2018-11-07 08:30:00 In all fairness, Nancy Pelos… 106016…
# … with 748 more rows, and abbreviated variable name ¹​status_id

The djt_joined_all variable holds the complete set of all tweets joined with the full schedule, meaning that there will be missing values where no tweets occurred in a 5 minute window or where the schedule data doesn’t cover a tweet.

# A tibble: 1,182 × 9
   time_inc            top_cat…¹ text  event…² created_at          liste…³  hour
   <dttm>              <fct>     <chr>   <int> <dttm>              <chr>   <dbl>
 1 2018-10-24 08:35:00 <NA>      Bria…      NA 2018-10-24 08:35:15 <NA>     8.59
 2 2018-11-02 09:45:00 <NA>      Wow!…      NA 2018-11-02 09:46:49 <NA>     9.78
 3 2018-11-06 01:35:00 <NA>      A fa…      NA 2018-11-06 01:36:22 <NA>     1.61
 4 2018-11-27 07:30:00 <NA>      The …      NA 2018-11-27 07:30:37 <NA>     7.51
 5 2018-11-29 19:00:00 <NA>      As R…      NA 2018-11-29 19:04:23 <NA>    19.1 
 6 2018-12-15 11:15:00 <NA>      The …      NA 2018-12-15 11:15:38 <NA>    11.3 
 7 2018-12-22 20:45:00 <NA>      Bret…      NA 2018-12-22 20:48:23 <NA>    20.8 
 8 2018-12-23 11:55:00 <NA>      I ju…      NA 2018-12-23 11:59:22 <NA>    12.0 
 9 2019-01-13 22:15:00 <NA>      ....…      NA 2019-01-13 22:18:31 <NA>    22.3 
10 2019-01-30 06:30:00 <NA>      ....…      NA 2019-01-30 06:34:31 <NA>     6.58
# … with 1,172 more rows, 2 more variables: date <dttm>, label <glue>, and
#   abbreviated variable names ¹​top_category, ²​event_id, ³​listed_title

And djt_workday contains the tweets within the period covered by the Axios schedules and during workday hours.

# A tibble: 418 × 9
   time_inc            top_cat…¹ label event…² created_at          liste…³  hour
   <dttm>              <fct>     <glu>   <int> <dttm>              <chr>   <dbl>
 1 2018-11-07 08:00:00 Executiv… If t…       1 2018-11-07 08:04:02 Execut…  8.07
 2 2018-11-07 08:30:00 Executiv… In a…       1 2018-11-07 08:31:24 Execut…  8.52
 3 2018-11-07 10:35:00 Executiv… Acco…       1 2018-11-07 10:39:11 Execut… 10.7 
 4 2018-11-07 14:40:00 Executiv… We a…       5 2018-11-07 14:44:11 Execut… 14.7 
 5 2018-11-07 14:40:00 Executiv… ....…       5 2018-11-07 14:44:12 Execut… 14.7 
 6 2018-11-09 09:50:00 Travel    “Pre…      22 2018-11-09 09:54:15 Depart…  9.90
 7 2018-11-09 10:55:00 Travel    .@Br…      22 2018-11-09 10:55:25 Depart… 10.9 
 8 2018-11-09 10:55:00 Travel    You …      22 2018-11-09 10:58:56 Depart… 11.0 
 9 2018-11-09 11:50:00 Travel    As s…      22 2018-11-09 11:52:19 Depart… 11.9 
10 2018-11-09 12:10:00 Travel    Jeff…      22 2018-11-09 12:10:02 Depart… 12.2 
# … with 408 more rows, 2 more variables: date <dttm>, weekend <chr>, and
#   abbreviated variable names ¹​top_category, ²​event_id, ³​listed_title
…
exec_time_total %>%
  arrange(date, desc(pct))

# A tibble: 378 × 3
   date                top_category      pct
   <dttm>              <fct>           <dbl>
 1 2018-11-07 00:00:00 Executive Time 0.833 
 2 2018-11-07 00:00:00 Lunch          0.111 
 3 2018-11-07 00:00:00 Meeting        0.0556
 4 2018-11-07 00:00:00 Event          0     
 5 2018-11-07 00:00:00 Unknown        0     
 6 2018-11-07 00:00:00 Travel         0     
 7 2018-11-08 00:00:00 Executive Time 0.5   
 8 2018-11-08 00:00:00 Meeting        0.222 
 9 2018-11-08 00:00:00 Lunch          0.111 
10 2018-11-08 00:00:00 Unknown        0.0833
# … with 368 more rows
…
To this end, I ran Trump’s tweet text through the NRC sentiment dictionary using get_nrc_sentiment() from the syuzhet package. This function returns an integer score from 0 to 10 for a range of positive and negative emotions.

R code…

djt_sentiment <-
  djt_joined %>%
  select(top_category, text) %>%
  mutate(sentiment = map(text, syuzhet::get_nrc_sentiment)) %>%
  unnest() %>%
  gather(emotion, value, -top_category, -text)

djt_sentiment

# A tibble: 2,950 × 4
   top_category   text                                             emotion value
   <fct>          <chr>                                            <chr>   <dbl>
 1 Executive Time If the Democrats think they are going to waste … anger       1
 2 Executive Time In all fairness, Nancy Pelosi deserves to be ch… anger       0
 3 Executive Time According to NBC News, Voters Nationwide Disapp… anger       4
 4 Executive Time We are pleased to announce that Matthew G. Whit… anger       1
 5 Executive Time ....We thank Attorney General Jeff Sessions for… anger       1
 6 Travel         “Presidential Proclamation Addressing Mass Migr… anger       0
 7 Travel         .@BrianKempGA ran a great race in Georgia – he … anger       0
 8 Travel         You mean they are just now finding votes in Flo… anger       2
 9 Travel         As soon as Democrats sent their best Election s… anger       2
10 Travel         Jeff Flake(y) doesn’t want to protect the Non-S… anger       2
# … with 2,940 more rows

djt_sentiment_mean <-
  djt_sentiment %>%
  group_by(top_category, emotion) %>%
  summarize(value = mean(value)) %>%
  mutate(emotion = fct_reorder(emotion, value)) %>%
  filter(top_category != "Unknown")

djt_sentiment_mean

# A tibble: 50 × 3
# Groups:   top_category [5]
   top_category   emotion      value
   <fct>          <fct>        <dbl>
 1 Executive Time anger        0.864
 2 Executive Time anticipation 0.870
 3 Executive Time disgust      0.525
 4 Executive Time fear         0.772
 5 Executive Time joy          0.654
 6 Executive Time negative     1.36 
 7 Executive Time positive     2.01 
 8 Executive Time sadness      0.562
 9 Executive Time surprise     0.537
10 Executive Time trust        1.52 
# … with 40 more rows
…
