…
library(dplyr)
library(purrr)
library(stringr)

words <- 
  words::words %>%
  as_tibble() %>%
  filter(word_length == 5) %>% 
  select(-word_length)

words

## # A tibble: 9,330 × 1
##    word 
##    <chr>
##  1 aahed
##  2 aalii
##  3 aargh
##  4 abaca
##  5 abaci
##  6 aback
##  7 abaft
##  8 abaka
##  9 abamp
## 10 abase
## # … with 9,320 more rows
…
letter_freq_pos

## # A tibble: 26 × 6
##    letter     p1       p2      p3      p4      p5
##    <chr>   <dbl>    <dbl>   <dbl>   <dbl>   <dbl>
##  1 a      0.0572 0.172    0.0952  0.0789  0.0453 
##  2 b      0.0693 0.00600  0.0256  0.0170  0.00439
##  3 c      0.0759 0.0139   0.0322  0.0340  0.0108 
##  4 d      0.0519 0.00686  0.0316  0.0354  0.0652 
##  5 e      0.0225 0.124    0.0646  0.194   0.105  
##  6 f      0.0479 0.00150  0.0141  0.0177  0.00622
##  7 g      0.0484 0.00600  0.0282  0.0323  0.0107 
##  8 h      0.0386 0.0437   0.00815 0.0168  0.0296 
##  9 i      0.0134 0.111    0.0839  0.0684  0.0193 
## 10 j      0.0155 0.000965 0.00322 0.00171 0      
## # … with 16 more rows
First Choice

score_entropy <- function(word) {
  chars <- str_split(word, "")[[1]]
  p <- letter_freq[chars]
  # we learn something but not much from duplicated letters
  p[duplicated(chars)] <- min(letter_freq)
  - sum(p * log(p, base = 2))
}

words %>% 
  mutate(score = map_dbl(word, score_entropy)) %>% 
  arrange(desc(score))

## # A tibble: 9,330 × 2
##    word  score
##    <chr> <dbl>
##  1 arose  2.61
##  2 arise  2.60
##  3 raise  2.60
##  4 reais  2.60
##  5 serai  2.60
##  6 osier  2.59
##  7 arles  2.58
##  8 earls  2.58
##  9 lares  2.58
## 10 laser  2.58
## # … with 9,320 more rows
score_choice <- function(word) {
  word_len <- str_length(word)
  chars <- str_split(word, "")[[1]]
  chars <- unique(chars)
  1 - prod(1 - letter_freq[chars])
}

words_first_choice <- 
  words %>% 
  mutate(score = map_dbl(word, score_entropy)) %>% 
  arrange(desc(score))

words_first_choice

## # A tibble: 9,330 × 2
##    word  score
##    <chr> <dbl>
##  1 arose  2.61
##  2 arise  2.60
##  3 raise  2.60
##  4 reais  2.60
##  5 serai  2.60
##  6 osier  2.59
##  7 arles  2.58
##  8 earls  2.58
##  9 lares  2.58
## 10 laser  2.58
## # … with 9,320 more rows
…
🟨 are in the solution but not where you guessed

🟩 are in the solution and are where you guessed

What if you guessed arose and got five gray boxes telling you that none of those letters appear in the solution?

str_has_none_of <- function(words, letters) {
  words <- str_split(words, "")
  map_lgl(words, ~ length(intersect(letters, .x)) == 0)
}

words_first_choice %>% 
  filter(str_has_none_of(word, c("a", "r", "o", "s", "e")))

## # A tibble: 449 × 2
##    word  score
##    <chr> <dbl>
##  1 unlit  2.44
##  2 until  2.44
##  3 linty  2.40
##  4 culti  2.38
##  5 tulip  2.37
##  6 uplit  2.37
##  7 cunit  2.36
##  8 cutin  2.36
##  9 tunic  2.36
## 10 unity  2.35
## # … with 439 more rows
…
## [1] TRUE

And finally we can write the third piece of information as a regular expression: ".[^r][^o]..".
The [] indicate a set of options that could be present at a location in the string.
The opening ^ negates the selection, so [^r] means a character that isn’t r.

words_first_choice %>% 
  filter(
    str_has_none_of(word, c("a", "s", "e")),
    str_has_all_of(word, c("r", "o")),
    str_detect(word, ".[^r][^o]..")
  )

## # A tibble: 108 × 2
##    word  score
##    <chr> <dbl>
##  1 lirot  2.55
##  2 intro  2.53
##  3 nitro  2.53
##  4 roily  2.47
##  5 toric  2.47
##  6 porin  2.44
##  7 minor  2.44
##  8 curio  2.43
##  9 rhino  2.42
## 10 round  2.42
## # … with 98 more rows
…
  prod(res)
}

words_score_pos <- 
  words %>% 
  mutate(score_pos = map_dbl(word, score_by_position)) %>%
  arrange(desc(score_pos))

words_score_pos

## # A tibble: 9,330 × 2
##    word  score_pos
##    <chr>     <dbl>
##  1 sores 0.000102 
##  2 sanes 0.0000917
##  3 sales 0.0000845
##  4 sones 0.0000831
##  5 seres 0.0000813
##  6 soles 0.0000766
##  7 sires 0.0000727
##  8 cares 0.0000719
##  9 senes 0.0000660
## 10 bares 0.0000657
## # … with 9,320 more rows
…
## # A tibble: 1 × 3
##   word  score  score_pos
##   <chr> <dbl>      <dbl>
## 1 motor  2.00 0.00000129

How did this work for me today?

# 2022-01-16
score_next_guess(
  guesses = c("arose"),
  results = c("----.")
)

## # A tibble: 28 × 3
##    word  score    score_pos
##    <chr> <dbl>        <dbl>
##  1 solar  2.58 0.00000591  
##  2 ratos  2.58 0.00000702  
##  3 rotas  2.58 0.00000921  
##  4 taros  2.58 0.0000172   
##  5 toras  2.58 0.0000226   
##  6 roans  2.56 0.0000134   
##  7 sonar  2.56 0.00000641  
##  8 roads  2.53 0.00000793  
##  9 sarod  2.53 0.00000666  
## 10 oscar  2.51 0.0000000235
## # … with 18 more rows
…
## # A tibble: 1 × 3
##   word  score  score_pos
##   <chr> <dbl>      <dbl>
## 1 solar  2.58 0.00000591

How can we get to igloo?

score_next_guess(
  guesses = c("arose"),
  results = c("..-..")
)

## # A tibble: 336 × 3
##    word  score    score_pos
##    <chr> <dbl>        <dbl>
##  1 indol  2.45 0.0000000247
##  2 tondi  2.45 0.000000510 
##  3 lotic  2.45 0.000000264 
##  4 pilot  2.43 0.00000148  
##  5 colin  2.43 0.00000233  
##  6 nicol  2.43 0.000000177 
##  7 noily  2.43 0.00000194  
##  8 ontic  2.43 0.0000000210
##  9 tonic  2.43 0.000000553 
## 10 litho  2.41 0.000000116 
## # … with 326 more rows
…
## # A tibble: 1 × 3
##   word  score     score_pos
##   <chr> <dbl>         <dbl>
## 1 igloo  1.96 0.00000000817

Ferry furor?

score_next_guess(
  guesses = c("arose"),
  results = c(".-..-")
)

## # A tibble: 300 × 3
##    word  score    score_pos
##    <chr> <dbl>        <dbl>
##  1 liter  2.55 0.00000289  
##  2 relit  2.55 0.00000153  
##  3 tiler  2.55 0.00000558  
##  4 liner  2.53 0.00000432  
##  5 inert  2.53 0.0000000679
##  6 inter  2.53 0.000000209 
##  7 niter  2.53 0.00000148  
##  8 uteri  2.50 0.0000000172
##  9 idler  2.50 0.0000000716
## 10 riled  2.50 0.00000465  
## # … with 290 more rows

score_next_guess(
  guesses = c("arose", "liter"),
  results = c(".-..-", "...--")
) %>% 
  arrange(desc(score_pos))

## # A tibble: 44 × 3
##    word  score  score_pos
##    <chr> <dbl>      <dbl>
##  1 berry  1.88 0.00000434
##  2 perry  1.93 0.00000413
##  3 ferny  2.22 0.00000344
##  4 derry  1.97 0.00000325
##  5 merry  1.92 0.00000325
##  6 beery  1.88 0.00000307
##  7 perky  2.21 0.00000301
##  8 ferry  1.81 0.00000300
##  9 peery  1.93 0.00000292
## 10 perdy  2.31 0.00000280
## # … with 34 more rows
…
