Garrick Aden-Buie - The Redacted, Text-Extracted Mueller Report
…
Recently, Emil Hvitfeldt released ggpage, a package that lets you create a page-layout visualization using ggplot2. While the package uses the text content of the document only — so the visualized text layout doesn’t completely match the layout of the original document — it does allow you to highlight text elements, like mentions of any of the recurring cast of characters in Stupid Watergate.

The first step is to load the text version of the Mueller report. You can see from the first few lines of the data that the OCR really struggled with the header that appears at the top of each page and has been crossed out with a single line. (The redacted text is less confusing to the OCR because it’s rendered in solid black and generally results in blank space.)

library(tidyverse)
library(ggpage)

mueller_report_csv <- "https://raw.githubusercontent.com/gadenbuie/mueller-report/ab74012b0532ffa34f3a45196d2b28004e11b9c2/mueller_report.csv"

mueller_report <- read_csv(mueller_report_csv)

mueller_report

# A tibble: 19,195 × 3
    page  line text                                             
   <dbl> <dbl> <chr>                                            
 1     1     1 "U.S. Department of Justice"                     
 2     1     2 "AttarAe:,c\\\\'erlc Predtiet // Mtt; CeA1:ttiA" 
 3     1     3 "Ma1:ertalPrn1:eetedUAder Fed. R. Crhtt. P. 6(e)"
 4     1     4 "Report On The Investigation Into"               
 5     1     5 "Russian InterferenceIn The"                     
 6     1     6 "2016 PresidentialElection"                      
 7     1     7 "Volume I of II"                                 
 8     1     8 "Special Counsel Robert S. Mueller, III"         
 9     1     9 "Submitted Pursuant to 28 C.F.R. § 600.8(c)"     
10     1    10 "Washington, D.C."                               
# … with 19,185 more rows
…
mueller_pages

# A tibble: 207,165 × 9
   word        page  line  xmin  xmax  ymin  ymax index_line color 
   <chr>      <dbl> <dbl> <dbl> <dbl> <dbl> <dbl> <chr>      <fct> 
 1 u.s            1     1   175   172  -204  -207 1-1        normal
 2 department     1     1   186   176  -204  -207 1-1        normal
 3 of             1     1   189   187  -204  -207 1-1        normal
 4 justice        1     1   197   190  -204  -207 1-1        normal
 5 washington     1    10   182   172  -240  -243 1-10       normal
 6 d.c            1    10   186   183  -240  -243 1-10       normal
 7 march          1    11   177   172  -244  -247 1-11       normal
 8 2019           1    11   182   178  -244  -247 1-11       normal
 9 attarae        1     2   179   172  -208  -211 1-2        normal
10 c              1     2   181   180  -208  -211 1-2        normal
# … with 207,155 more rows
…
