A Calendar in Your R Console – Garrick Aden-Buie
…
The make_month_dates() function takes a full year-month-day or a year-month and returns the dates between the month start of the start_date and the month end of the end_date. Weeks can start on Monday (1) or Sunday (7).

make_month_dates("2020-09", "2020-11", week_start = 1)

# A tibble: 91 × 8
   date         day  wday weekend  week month     month_int  year
   <date>     <int> <dbl> <lgl>   <dbl> <ord>         <dbl> <dbl>
 1 2020-09-01     1     2 FALSE      36 September         9  2020
 2 2020-09-02     2     3 FALSE      36 September         9  2020
 3 2020-09-03     3     4 FALSE      36 September         9  2020
 4 2020-09-04     4     5 FALSE      36 September         9  2020
 5 2020-09-05     5     6 TRUE       36 September         9  2020
 6 2020-09-06     6     7 TRUE       36 September         9  2020
 7 2020-09-07     7     1 FALSE      37 September         9  2020
 8 2020-09-08     8     2 FALSE      37 September         9  2020
 9 2020-09-09     9     3 FALSE      37 September         9  2020
10 2020-09-10    10     4 FALSE      37 September         9  2020
# … with 81 more rows
…
